[
  {"host": "keycloak.siscc.org", "target": "http://keycloak-http"},

  {"host": "sdmxjs-qa.siscc.org", "target": "http://sdmxjs"},
  {"host": "visions-qa.siscc.org", "target": "http://visions"},
  {"host": "sfs-qa.siscc.org", "target": "http://sfs" },
  {"host": "share-qa.siscc.org", "target": "http://share" },
  {"host": "dv-qa.siscc.org", "target": "http://data-viewer", "tenant": "oecd" },
  {"host": "dlm-qa.siscc.org", "target": "http://data-lifecycle-manager", "tenant": "oecd:dlm" },
  {"host": "dlm2-qa.siscc.org", "target": "http://data-lifecycle-manager", "tenant": "oecd:dlm2" },
  {"host": "de-qa.siscc.org", "target": "http://data-explorer", "tenant": "oecd:de" }
]
